RGB-Y Fixed Point Modules/rgb2grey_dsp/rgb2grey_dsp.vcd
$date
	Sat Mar 02 22:52:06 2024
$end
$version
	ModelSim Version 10.5b
$end
$timescale
	1ps
$end

$scope module rgb2grey_tb $end
$var reg 24 ! rgb_pixel [23:0] $end
$var wire 1 " grey_pixel [7] $end
$var wire 1 # grey_pixel [6] $end
$var wire 1 $ grey_pixel [5] $end
$var wire 1 % grey_pixel [4] $end
$var wire 1 & grey_pixel [3] $end
$var wire 1 ' grey_pixel [2] $end
$var wire 1 ( grey_pixel [1] $end
$var wire 1 ) grey_pixel [0] $end

$scope module uut $end
$var wire 1 * rgb_pixel [23] $end
$var wire 1 + rgb_pixel [22] $end
$var wire 1 , rgb_pixel [21] $end
$var wire 1 - rgb_pixel [20] $end
$var wire 1 . rgb_pixel [19] $end
$var wire 1 / rgb_pixel [18] $end
$var wire 1 0 rgb_pixel [17] $end
$var wire 1 1 rgb_pixel [16] $end
$var wire 1 2 rgb_pixel [15] $end
$var wire 1 3 rgb_pixel [14] $end
$var wire 1 4 rgb_pixel [13] $end
$var wire 1 5 rgb_pixel [12] $end
$var wire 1 6 rgb_pixel [11] $end
$var wire 1 7 rgb_pixel [10] $end
$var wire 1 8 rgb_pixel [9] $end
$var wire 1 9 rgb_pixel [8] $end
$var wire 1 : rgb_pixel [7] $end
$var wire 1 ; rgb_pixel [6] $end
$var wire 1 < rgb_pixel [5] $end
$var wire 1 = rgb_pixel [4] $end
$var wire 1 > rgb_pixel [3] $end
$var wire 1 ? rgb_pixel [2] $end
$var wire 1 @ rgb_pixel [1] $end
$var wire 1 A rgb_pixel [0] $end
$var wire 1 " grey_pixel [7] $end
$var wire 1 # grey_pixel [6] $end
$var wire 1 $ grey_pixel [5] $end
$var wire 1 % grey_pixel [4] $end
$var wire 1 & grey_pixel [3] $end
$var wire 1 ' grey_pixel [2] $end
$var wire 1 ( grey_pixel [1] $end
$var wire 1 ) grey_pixel [0] $end
$var reg 8 B red_c [7:0] $end
$var reg 8 C green_c [7:0] $end
$var reg 8 D blue_c [7:0] $end
$var reg 16 E summer [15:0] $end
$upscope $end
$upscope $end
$enddefinitions $end
#0
$dumpvars
b10110101010001110111000 !
b1001100 B
b10010110 C
b11101 D
b1000111100010010 E
1)
1(
1'
1&
0%
0$
0#
1"
0A
0@
0?
1>
1=
1<
0;
1:
19
18
07
06
05
14
03
12
01
10
0/
1.
1-
0,
1+
0*
$end
#100
b11101010000110000100110 !
1@
1?
0>
0=
0:
09
08
17
16
04
02
11
00
1/
0.
1,
b10111000010010 E
0)
1$
0"
#200
b11011011100101100110 !
1;
19
07
15
14
12
1.
0-
0,
0+
b111101111010000 E
1)
0'
1%
1#
#300
b101110011110001110110110 !
1=
0;
1:
18
06
05
13
0/
1-
1,
1*
b1101000010001100 E
0)
0(
0&
0$
1"
#400
b11100000100011000110 !
0=
0<
1;
09
08
16
04
03
02
01
10
1/
0-
0,
0*
b1111101000110 E
1)
1(
1'
1&
0#
0"
#500
b100101010110111001000110 !
0:
18
17
14
13
11
00
0.
1-
1*
b111010010011110 E
0)
0(
0&
1$
1#
#600
b110100010000111101110010 !
0?
1=
1<
19
04
03
0/
1+
b101001111000000 E
1)
1(
0'
0$
#700
b100110111111001100101110 !
1?
1>
0=
0;
07
06
15
14
13
12
10
1.
0+
b1100000110011100 E
0(
0%
1"
#800
b1101110100010001100111 !
1A
0>
1;
09
08
17
05
04
02
1/
0.
1,
0*
b100001111010111 E
1(
0"
#900
b100001100101010100111010 !
0A
0?
1>
1=
0;
19
15
01
0-
0,
1*
b110000000101000 E
0)
0(
1$
#1000
b111110010001110001101010 !
0=
1;
09
16
03
11
00
0/
1.
1-
1,
1+
b110011001010110 E
1(
1'
#1100
b1001011101000110110100 !
0@
1?
0>
1=
0;
1:
19
07
06
13
12
1/
0.
0-
0+
0*
b1001100111010110 E
1)
0(
0'
1&
1%
0$
0#
1"
#1200
b101101111101001101111 !
1A
1@
1>
0=
1;
0:
09
18
16
14
01
10
1-
0,
b1010010110010111 E
1'
0&
0%
1$
#1300
b100110110001101001010110 !
0A
0>
1=
0<
04
03
02
11
0/
1.
1*
b100011011111110 E
0)
1(
0$
1#
0"
#1400
b110010011011000110101 !
1A
0@
1<
0;
17
06
14
00
0*
b10110100010001 E
1)
0(
1&
1$
0#
#1500
b111011010111011111010100 !
0A
0<
1;
1:
19
13
1/
0-
1,
1+
1*
b1010010000011010 E
0)
0&
1"
#1600
b100111110100000010101110 !
1@
1>
0=
1<
0;
09
08
07
05
04
10
1-
0,
0+
b110100001101010 E
0'
1&
1#
0"
#1700
b111100011000000101111101 !
1A
0@
1=
1;
0:
19
03
12
00
0/
0.
1,
1+
b1010000101001011 E
1)
0&
0#
1"
#1800
b110011001011011111011011 !
1@
0?
0<
1:
18
17
15
14
01
1/
1.
0-
0,
b1100000010011001 E
0)
0$
1#
#1900
b111011110000111000000101 !
0@
1?
0>
0=
0;
0:
09
16
05
04
02
11
10
1,
b100111110111001 E
1)
1(
1'
1&
0"
#2000
b110011011000011011100011 !
1@
0?
1<
1;
1:
06
12
00
0,
b1010010100010111 E
0(
0&
1$
0#
1"
#2100
b1000001100100000 !
0A
0@
0;
0:
19
07
01
0/
0.
0+
0*
b101000001100010 E
0)
0'
1%
0$
1#
0"
#2200
b110110100110010111100101 !
1A
1?
1;
1:
08
17
14
13
02
10
1.
1-
1+
1*
b1001010111010111 E
1)
1'
0#
1"
#2300
b111110100111011100000101 !
0<
0;
0:
18
15
1,
b1001000010000011 E
0)
0'
#2400
b1101111000110100100101 !
1<
08
16
05
04
03
12
11
1/
0.
0+
0*
b110011100100011 E
1)
1(
1'
0%
1$
1#
0"
#2500
b110001110001111011101001 !
0?
1>
1;
1:
09
18
15
02
0-
0,
1+
1*
b110011100001101 E
#2600
b100000010010001011101 !
1?
1=
0<
0:
08
06
05
14
01
00
0/
1-
0+
0*
b10010001100001 E
0)
0(
0#
#2700
b1100101001110110001010 !
0A
1@
0?
0=
0;
1:
19
16
15
04
12
10
1,
b111101001111000 E
1(
0'
1&
1%
1#
#2800
b11100010010000101011000 !
0@
1=
1;
0:
07
06
05
14
02
11
00
1+
b11111011011010 E
1'
0#
#2900
b100100100110001011 !
1A
1@
0=
0;
1:
16
04
13
01
10
0-
0,
0+
b11101100011101 E
1)
0'
#3000
b1111111101000101010110 !
0A
1?
0>
1=
1;
0:
06
15
12
11
1/
1.
1-
1,
b1001011011101000 E
0)
1'
0&
0$
1"
#3100
b111000111001001111001001 !
1A
0@
0?
1>
0=
1:
18
03
0/
0.
0-
1+
1*
b1011000001001011 E
0(
0'
1$
#3200
b11011000111001010111001 !
1=
1<
0;
09
14
13
02
01
00
1/
1.
0*
b111011111010001 E
1)
1(
1'
1#
0"
#3300
b101011011000101000000 !
0A
0>
0=
0<
1;
0:
19
08
03
12
11
0.
1-
0,
0+
b111010100110010 E
0(
#3400
b100110111101011110000000 !
0;
1:
18
17
04
13
10
0/
1.
1*
b1011101001111110 E
0)
1(
0'
1&
0#
1"
#3500
b111010001011111000001110 !
1@
1?
1>
0:
09
16
14
03
01
00
0-
1,
1+
b1011010111001010 E
1)
0(
1'
0&
#3600
b1001111100100011010100 !
0@
0>
1=
1;
1:
08
07
05
04
13
11
10
1/
0.
0+
0*
b1001100011001000 E
0)
0'
1&
0$
#3700
b11111001110100110001110 !
1@
1>
0=
0;
19
14
01
00
1.
1-
1+
b1011110101101100 E
1)
1'
1$
#3800
b111101100110010011000000 !
0@
0?
0>
1;
09
17
06
02
10
0.
1*
b1001100101100000 E
0'
0$
#3900
b110010110001100110010111 !
1A
1@
1?
1=
0;
19
07
16
15
04
03
11
0/
1.
0-
0,
b101110000000101 E
0)
1'
1#
0"
#4000
b110100011001000100100101 !
0@
0=
1<
0:
06
12
00
0.
1-
b1001011100110011 E
1)
1(
0&
0#
1"
#4100
b11100111101101111000111 !
1@
0<
1;
1:
18
16
13
10
1,
0*
b1011100100000001 E
0(
0'
1&
1$
#4200
b110010110111001001011000 !
0A
0@
0?
1>
1=
0:
09
06
14
02
1.
0-
0,
1*
b1000100100001000 E
0%
0$
#4300
b101111111111100101010001 !
1A
0>
19
08
16
12
1/
1-
1,
0+
b1101001111000111 E
1(
0&
1%
1#
#4400
b11100101100100100110010 !
0A
1@
1<
0;
05
04
01
0/
0.
1+
0*
b1001110101001000 E
0(
1'
1&
0#
#4500
b1000001101111000100011 !
1A
0=
09
18
17
15
00
0-
0+
b1000111110001011 E
1(
0%
#4600
b101101001101010100 !
0A
0@
1?
1=
0<
1;
19
07
06
10
0,
b1000010110111110 E
0(
0&
#4700
b101000010000000110110011 !
1A
1@
0?
1<
0;
1:
08
05
03
02
11
00
1,
1*
b100010010101001 E
0)
1#
0"
#4800
b111100101011001011010 !
0A
1>
0<
1;
0:
09
18
17
15
13
01
10
1/
1.
1-
0,
0*
b100010101111110 E
1)
#4900
b101011100001101011100110 !
1?
0>
0=
1<
1:
07
16
03
0-
1,
1*
b101110011110010 E
0)
1&
1%
#5000
b110101101111010111110110 !
1=
19
08
17
06
14
13
12
0.
1-
0,
1+
b1110101011110100 E
1(
0'
0%
1$
1"
#5100
b110101100011001001100101 !
1A
0@
0=
0:
09
18
07
03
02
b110100001000101 E
0(
0"
#5200
b111110100001010111101010 !
0A
1@
0?
1>
1:
19
08
17
04
0/
1.
1,
b111000100001000 E
1)
0&
1%
#5300
b10100110101101100001111 !
1A
1?
0<
0;
0:
18
07
16
13
11
0.
0,
0*
b100111110101001 E
1(
1'
1&
0%
0$
#5400
b11000001000011101111 !
1<
1;
1:
09
08
06
03
01
00
1/
1.
0-
0+
b10100000000011 E
0)
0(
0'
1$
0#
#5500
b100111001010010001000100 !
0A
0@
0>
0<
0:
17
05
14
12
1-
1*
b1001011000011100 E
1(
1'
0&
1%
0$
1"
#5600
b110100100101110111001001 !
1A
0?
1>
1:
19
16
15
04
13
02
10
0/
0.
1+
b1000101110011011 E
1)
0'
1&
0%
#5700
b111011110001000011001011 !
1@
09
07
06
03
11
1/
1.
0-
1,
b110011101010011 E
1'
0&
1$
1#
0"
#5800
b100111101100001101000111 !
1?
0>
0:
19
18
05
13
12
01
1-
0,
0+
b1010100100110101 E
0(
0'
1&
0#
1"
#5900
b101000110111101011000111 !
1:
09
16
15
14
02
11
0/
0.
0-
1,
b1000111001101011 E
0)
1(
1'
0$
#6000
b101000001101010111110010 !
0A
0?
1=
1<
19
08
17
06
04
12
01
00
b1100011110111000 E
1)
0&
1#
#6100
b1110101001101111100001 !
1A
0@
0=
18
07
16
03
10
1.
1-
0*
b1000010110000111 E
0(
0#
#6200
b100110100101001110000101 !
1?
0<
0;
06
13
02
0,
1*
b110110101101011 E
1&
1$
1#
0"
#6300
b1010011101001100110000 !
0A
0?
1=
1<
0:
12
11
00
0-
1,
0*
b1000110100111110 E
0$
0#
1"
#6400
b111101000010001001110110 !
1@
1?
1;
09
05
14
03
02
01
1/
0.
1-
1+
1*
b110100110111010 E
0'
1$
1#
0"
#6500
b10011010100100100011101 !
1A
0@
1>
0<
0;
19
08
16
04
13
11
1.
0-
0,
0*
b100010011101011 E
0)
1'
0&
0$
#6600
b100100000100010111010010 !
0A
1@
0?
0>
1;
1:
17
06
01
0/
0.
1-
0+
1*
b110101011111000 E
1(
0'
1&
1$
#6700
b101001110011100010110 !
1?
0;
0:
18
14
12
1/
0*
b1000111111001000 E
1)
1'
0$
0#
1"
#6800
b110000010000111011011011 !
1A
0?
1>
1;
1:
09
16
04
03
02
11
0/
0-
1+
1*
b101101001001111 E
0)
0'
1%
1#
0"
#6900
b10000100001001101000000 !
0A
0@
0>
0=
0:
19
07
06
15
01
10
0*
b10010111111010 E
1)
0(
1'
0&
0%
1$
0#
#7000
b1001011100101010110101 !
1A
1?
1=
1<
0;
1:
09
16
05
13
12
11
00
1/
1,
0+
b1001010111011001 E
1%
0$
1"
#7100
b110111100011001010010001 !
0?
0<
06
15
14
03
02
01
10
1.
1-
0,
1+
1*
b110111110100001 E
1(
1&
0%
1$
1#
0"
#7200
b10000111001111101110011 !
1@
1<
1;
0:
19
17
16
04
12
11
0/
0.
0-
0*
b111111000010101 E
0)
1%
#7300
b100100001000010100000 !
0A
0@
0=
0;
1:
09
08
07
06
02
01
1-
0+
b10000011011000 E
0(
0'
0&
0%
0#
#7400
b10100111110101010111 !
1A
1@
1?
1=
0<
1;
0:
19
17
16
14
13
1.
0-
b101011000010001 E
1(
1'
1%
0$
1#
#7500
b1000001110000011101 !
0@
1>
0;
09
04
03
00
1/
0.
b1010011100001 E
0(
0#
#7600
b11110001010001111010100 !
0A
0>
1;
1:
19
18
07
06
05
14
12
0/
1.
1-
1,
1+
b1001101100100110 E
1)
1(
0'
1&
1"
#7700
b110001110001111111011101 !
1A
1>
17
16
15
04
02
11
10
1/
0.
0-
0,
1*
b110011001000111 E
0)
1'
0&
0%
1$
1#
0"
#7800
b111111010000110011010 !
0A
1@
0?
0;
08
07
06
05
14
12
1.
1-
0+
0*
b111100011111100 E
0(
0'
1&
1%
#7900
b10001101101000010000100 !
0@
1?
0>
0=
09
15
04
13
01
0.
0-
1+
b1001110110011100 E
1)
1'
0$
0#
1"
#8000
b101000000100101110110111 !
1A
1@
1=
1<
19
18
16
05
02
00
0/
1,
0+
1*
b111000000101101 E
0)
0'
0&
1$
1#
0"
#8100
b111101011110010001001 !
0@
0?
1>
0=
0<
09
08
17
15
14
03
12
10
1/
1.
1-
0,
0*
b1000011010010101 E
1(
1'
0%
0$
0#
1"
#8200
b111010001001100100001010 !
0A
1@
0:
19
07
04
00
0/
0-
1,
1+
1*
b1001111110101000 E
1)
1&
1%
#8300
b110110010111101011010101 !
1A
0@
1?
0>
1=
1;
1:
09
18
14
13
02
11
1-
0,
b1010000000001001 E
0)
0(
0'
0&
0%
1$
#8400
b111001010000110011111110 !
0A
1@
1>
1<
08
17
05
04
03
1/
0.
0-
1,
b110011111001010 E
1)
1(
1'
1#
0"
#8500
b101100011111001001100 !
0@
0=
0<
0:
18
15
14
01
10
1-
0,
0+
0*
b11001101111000 E
0'
1%
0#
#8600
b110010011000110111111110 !
1@
1=
1<
1:
19
08
05
04
12
11
00
0/
1.
0-
1+
1*
b1010101100010000 E
1&
0%
1"
#8700
b11111000001101011000011 !
1A
0?
0>
0=
0<
09
18
07
15
02
01
1/
1-
1,
0*
b100101000100011 E
0)
0$
1#
0"
#8800
b11100011110111110001000 !
0A
0@
1>
0;
19
17
05
14
13
12
11
0/
0.
b1011110011111110 E
0(
1'
1%
1$
0#
1"
#8900
b11000100001110110111100 !
1?
1=
1<
08
15
04
03
02
01
10
0-
b100001101100010 E
1)
1(
0'
0&
0%
0$
1#
0"
#9000
b110110100010110011011 !
1A
1@
0?
0<
06
05
13
11
1.
1-
0,
0+
b100001000000001 E
0)
#9100
b11101011101011110011 !
0>
1<
1;
09
18
07
16
15
14
03
12
01
1/
0-
b1000110010101011 E
0(
1'
1&
0#
1"
#9200
b100000001110111000101111 !
1?
1>
0=
0;
0:
17
05
13
00
0/
0.
1*
b1011011011000111 E
1(
0&
1%
1$
#9300
b11110100100010110110111 !
0>
1=
1:
19
08
06
04
02
10
1.
1-
1,
1+
0*
b110000101100001 E
1)
0(
0'
0%
1#
0"
#9400
b101100111101000100001011 !
0?
1>
0=
0<
0:
07
15
12
11
0.
0+
1*
b1011000011011001 E
0)
1%
0#
1"
#9500
b11010011101011100111 !
1?
0>
1<
1;
1:
09
18
16
14
03
02
00
1/
1.
0-
0,
0*
b100000000000011 E
0%
0$
1#
0"
#9600
b11011111010110100000000 !
0A
0@
0?
0<
0;
0:
19
08
17
05
12
10
1,
1+
b1000011001010010 E
1(
1'
0#
1"
#9700
b10111010100100100001001 !
1A
1>
07
04
13
02
00
1-
0,
b100011101100111 E
1)
1#
0"
#9800
b101000011010001001101010 !
0A
1@
1<
1;
09
18
06
14
03
12
0/
0.
0-
1,
0+
1*
b1001101010111010 E
0)
0'
1&
1%
0#
1"
#9900
b1001110011101011000001 !
1A
0@
0>
0<
1:
16
15
02
10
1/
0*
b100001101101101 E
1)
0&
0%
1#
0"
#10000
b100011000001111000000100 !
0A
1?
0;
0:
17
04
01
00
1.
0,
1*
b11101110011000 E
1&
1%
1$
0#
#10100
b111011001010111101100000 !
0?
1<
1;
19
05
14
12
1,
1+
b1011011101111010 E
1'
0&
1"
#10200
b111110100001110101111 !
1A
1@
1?
1>
0;
1:
07
06
04
13
02
11
10
1-
0,
0+
0*
b100010001001001 E
0)
0(
0%
0$
1#
0"
#10300
b11011111100010101101111 !
1;
0:
08
17
12
0-
1,
1+
b1010000011110101 E
0'
1$
0#
1"
#10400
b110001101001100101000101 !
0@
0>
0<
07
16
15
03
01
0.
0,
1*
b1001110000111111 E
1'
1&
1%
0$
#10500
b111111111110011111001101 !
1>
1:
18
17
06
05
14
13
11
1.
1-
1,
b1110101001000111 E
1(
0'
0%
1$
1#
#10600
b110000000111011101101100 !
0A
1<
0:
15
02
01
00
0/
0.
0-
0,
b1000101011110110 E
0$
0#
#10700
b110101110011111011010000 !
0?
0>
1=
0<
1:
09
16
03
11
10
1/
1-
b111101110111000 E
1)
1%
1$
1#
0"
#10800
b110011000100000010101001 !
1A
1>
0=
1<
0;
08
07
06
05
04
13
01
00
1.
0-
b111010100110101 E
0(
1'
0&
#10900
b101000001100110111111100 !
0A
1?
1=
1;
19
17
16
12
0/
0.
1,
0+
b1100010000101010 E
0)
0%
0$
1"
#11000
b11011001100001011100101 !
1A
0>
0=
09
18
07
06
1/
1.
1+
0*
b1010101110101101 E
1)
1(
0'
1&
1$
0#
#11100
b10111000111000010100111 !
1@
0;
08
15
14
02
1-
0,
b110111111011011 E
1'
1#
0"
#11200
b100101110100000000111011 !
0?
1>
1=
0:
05
04
11
10
0.
0+
1*
b101100100000011 E
0(
0'
1%
0$
#11300
b101101001101100010111110 !
0A
1?
1:
16
15
12
01
00
1,
b1100100110000110 E
0%
1"
#11400
b10011000111101010100001 !
1A
0@
0?
0>
0=
18
14
02
1.
0-
0,
1+
0*
b111000001001001 E
0)
0&
1%
1$
0"
#11500
b101001010010010110000101 !
1?
0<
19
08
17
06
05
03
11
0.
1,
0+
1*
b101010110111011 E
1)
1'
0$
#11600
b10010111110001110 !
0A
1@
1>
18
16
0/
0,
0*
b10101111101100 E
1(
0'
1&
0%
1$
0#
#11700
b101000111101111110100000 !
0@
0?
0>
1<
15
04
13
12
10
1,
1*
b1100010100101110 E
0(
1'
0&
0$
1#
1"
#11800
b1111110110000100010101 !
1A
1?
1=
0<
0:
08
07
06
05
14
02
1/
1.
1-
0*
b100110111101011 E
1&
0"
#11900
b11111011001000000000000 !
0A
0?
0=
09
15
04
03
12
00
1+
b111100101111100 E
0'
1%
1$
#12000
b110011011100111000100 !
1?
1;
1:
19
16
14
0/
0,
0+
b1000101000000110 E
0)
1(
0%
0$
0#
1"
#12100
b10011101011011110001011 !
1A
1@
0?
1>
0;
18
17
06
01
10
1/
0-
1+
b1001001000100001 E
0&
1%
#12200
b11000111011000010101000 !
0A
0@
1<
09
08
07
11
0/
0.
1,
b1001011110001100 E
1)
1'
#12300
b100000100110011010111101 !
1A
1?
1=
18
17
05
13
02
01
0,
0+
1*
b111011111000101 E
1$
1#
0"
#12400
b110000010110101001101100 !
0A
0=
1;
0:
07
16
11
00
1+
b1000001110100100 E
0'
0%
0$
0#
1"
#12500
b10101001110101101111101 !
1A
1=
19
12
01
1/
1-
0*
b1011000011001011 E
0)
0(
1%
1$
#12600
b111000001011010101011 !
1@
0?
0=
0;
1:
09
17
06
15
04
03
02
1.
0+
b10100010010011 E
1&
0%
0"
#12700
b1001101101000110101010 !
0A
19
08
07
13
12
10
0.
0-
1,
b1001100100000000 E
1)
1%
0$
1"
#12800
b101011100101010101100001 !
1A
0@
0>
1;
0:
17
02
1.
1*
b111000001110011 E
0)
0&
1$
1#
0"
#12900
b10010010001101010110010 !
0A
1@
1=
0;
1:
09
18
07
16
03
11
00
0/
0,
1+
0*
b11100100010010 E
1)
1&
0#
#13000
b110010100101000101010110 !
1?
0<
1;
0:
19
08
06
13
01
10
1*
b111010100101100 E
1'
0&
1#
#13100
b10011111110101001000110 !
0=
09
18
16
05
14
12
11
1/
0*
b1010100001111110 E
0)
0'
1&
0%
0#
1"
#13200
b100001000011100011010100 !
0@
1=
1:
08
15
03
02
01
00
0.
0+
1*
b110000000000100 E
0&
1#
0"
#13300
b101010110010001011100001 !
1A
0?
0=
1<
18
06
05
11
10
0/
1.
1,
b110000000101101 E
#13400
b10000011110111111010100 !
0A
1?
1=
0<
19
17
16
13
12
00
0.
0,
1+
0*
b1011011101011010 E
1)
1(
1'
1%
0#
1"
#13500
b111100101111010000100001 !
1A
0?
0=
1<
0;
0:
09
08
06
15
01
10
1-
1,
1*
b1101101010001101 E
0)
0'
1&
0$
1#
#13600
b11100001111100101100000 !
0A
1;
19
07
16
00
0*
b1011111000000110 E
1'
1$
0#
#13700
b1100010101011101101001 !
1A
1>
18
17
06
04
02
11
0+
b100110101101011 E
1)
0(
0%
0$
1#
0"
#13800
b11011011011011000000110 !
0A
1@
1?
0>
0<
0;
09
14
03
12
1/
1.
0-
1+
b1000101110101110 E
1(
0'
0#
1"
#13900
b11000000111011111110100 !
0@
1=
1<
1;
1:
19
13
02
01
0/
0.
b111110111011110 E
0(
1'
1%
1$
1#
0"
#14000
b100011011001111110 !
1@
1>
0:
09
03
10
0,
0+
b10111010000010 E
0)
1(
0%
0#
#14100
b110111011001010011001010 !
0?
0=
0<
1:
08
04
12
11
00
1/
1.
1-
1+
1*
b1010111100110110 E
1)
1"
#14200
b10001100111001000101000 !
0@
1<
0;
0:
18
07
14
13
02
01
10
0.
0-
0*
b101110000011100 E
0)
0(
1%
0$
1#
0"
#14300
b111100000100000000011 !
1A
1@
0>
0<
08
16
05
04
03
1.
1-
0+
b110111101111 E
1)
0%
0#
#14400
b1110110110110101111 !
1?
1>
1<
1:
19
17
14
13
11
0.
0-
b101010111000101 E
0&
1%
1#
#14500
b10110001101001111101100 !
0A
0@
1;
18
07
06
15
04
12
01
00
0/
1.
1-
1+
b1011000001111110 E
0)
0'
1$
0#
1"
#14600
b10001000100001101111110 !
1@
1=
0:
05
02
1/
0.
0-
b100100110111000 E
1)
1&
0%
0$
1#
0"
#14700
b100011100110010001000110 !
0>
0=
0<
09
08
17
14
10
1.
0+
1*
b110110010101110 E
0)
1'
1$
#14800
b100101000101100101001000 !
0@
0?
1>
19
07
16
15
04
00
0.
1-
b110100000111110 E
0'
#14900
b111100100110011011000101 !
1A
1?
0>
1:
09
18
17
06
05
14
10
0/
1,
1+
b1001100111101101 E
1)
1%
0$
0#
1"
#15000
b110101101001011111111110 !
0A
1@
1>
1=
1<
19
15
04
03
12
1/
0,
b1011010011001000 E
0)
1'
0&
1$
#15100
b101010111110011010100100 !
0@
0>
0=
0;
09
05
14
13
11
0/
1.
0-
1,
0+
b1100110000011100 E
1&
0%
0$
1#
#15200
b10010111011110101110101 !
1A
1=
1;
0:
19
08
16
15
03
0,
1+
0*
b1001001001000011 E
1(
0'
0&
1%
0#
#15300
b1101111000000001101 !
1>
0=
0<
0;
09
07
06
13
01
1/
0.
0+
b1000111111100001 E
1)
1'
1&
0%
#15400
b100110011001011001110110 !
0A
1@
0>
1=
1<
1;
18
17
04
03
11
00
0/
1.
1-
1*
b1001001010101110 E
0)
0'
0&
1%
#15500
b11100010110001111101 !
1A
0@
1>
08
16
05
14
02
01
10
1/
0-
0*
b10110000011001 E
0(
1'
1&
0%
1$
0"
#15600
b1101111010110100011111 !
1@
0<
0;
19
12
11
0.
1-
1,
b111100100110101 E
1)
0'
1%
1#
#15700
b111100011010110111111001 !
0@
0?
1<
1;
1:
00
0/
1+
1*
b1100100100011111 E
0%
0$
1"
#15800
b1000001001001001111001 !
0:
09
18
07
06
15
04
01
0-
0+
0*
b110110011000001 E
0)
1'
1$
0"
#15900
b110010111100101000100001 !
0>
0=
0;
16
05
13
11
10
1.
0,
1+
1*
b1011011001011101 E
1(
0&
1%
0#
1"
#16000
b1110100010100001101101 !
1?
1>
1;
08
14
03
02
01
1-
1,
0+
0*
b11010100000001 E
1)
0(
0"
#16100
b100000111110101011011101 !
1=
0<
1:
18
13
12
11
0.
0-
0,
1*
b1100100100001001 E
0'
1&
0%
0$
1#
1"
#16200
b1101010010001011001111 !
1@
0=
06
03
02
00
1/
1-
1,
0*
b11101100011011 E
1(
1%
1$
0#
0"
#16300
b1010100001111110001 !
0@
0?
0>
1=
1<
19
04
13
0-
0,
b100010000001011 E
0)
0(
1'
0&
0%
0$
1#
#16400
b11111111100111001100101 !
1?
0=
0:
09
17
16
12
10
1.
1-
1,
1+
b1010100111011001 E
1)
0'
1&
1$
0#
1"
#16500
b10001001010010110011010 !
0A
1@
0?
1>
1=
0<
0;
1:
19
08
06
14
03
01
00
0.
0-
0,
b1000011001010000 E
0)
1(
1'
0&
0$
#16600
b100111100101111101110000 !
0@
0>
1<
1;
0:
18
16
15
04
13
02
10
1.
1-
0+
1*
b111001101000010 E
1)
0'
1%
1$
1#
0"
#16700
b11010000101101110101000 !
1>
0=
0;
1:
07
00
0/
0-
1,
1+
0*
b110011100111010 E
1'
0%
#16800
b1001001001011101110110 !
1@
1?
0>
1=
1;
0:
17
06
03
12
1/
0.
0+
b111000010001000 E
0)
0(
0'
1%
#16900
b111011010010001111101110 !
1>
0=
1:
07
05
14
02
11
1.
1+
1*
b111010111010100 E
1)
1'
#17000
b11111011011100110110100 !
0@
0>
1=
0;
08
16
15
12
1-
0*
b1010010111100110 E
0%
0#
1"
#17100
b111100101000100011000 !
0?
1>
0<
0:
06
04
13
02
01
10
0,
0+
b11101100010110 E
1(
0'
1&
1%
0"
#17200
b100001101001101001010001 !
1A
0>
1;
09
18
16
03
12
0.
0-
1*
b1000101100110001 E
0%
0$
1"
#17300
b110000011110001001111100 !
0A
1?
1>
1<
06
05
14
13
11
00
0/
1+
b1100101111000100 E
1#
#17400
b10110100111001101001101 !
1A
0=
0<
19
15
02
01
10
1.
1-
0*
b110011011010011 E
0)
1'
0&
1$
0"
#17500
b101010000010010011000001 !
0?
0>
1:
09
08
17
05
03
00
0-
1,
0+
1*
b101110011010101 E
0(
1&
1%
0$
#17600
b1100100110111010110111 !
1@
1?
1=
1<
0;
18
16
13
10
0.
1-
0*
b110010000000111 E
0&
0%
1$
#17700
b111000100000101001000110 !
0A
0=
0<
1;
0:
07
04
03
0-
1+
1*
b101000011100010 E
0'
1%
0$
#17800
b10110111010011011110000 !
0@
0?
1=
1<
1:
17
06
14
12
11
1.
1-
0,
0*
b1001011101111000 E
1)
1(
1'
0#
1"
#17900
b101110110111100100100111 !
1A
1@
1?
0=
0;
0:
19
08
07
16
15
13
02
1,
0+
1*
b1000001011010101 E
0)
0'
0%
#18000
b110100110110000101110011 !
0?
1=
1;
06
05
0.
0,
1+
b1000010010000001 E
0(
1'
#18100
b1000010011100111100 !
0A
0@
1?
1>
0;
18
17
03
01
00
1/
0-
0+
0*
b1111011010110 E
1(
1&
1%
0"
#18200
b111110001111110010010110 !
1@
0>
0<
1:
09
08
16
15
13
12
0/
1.
1-
1,
1+
1*
b1110111001000110 E
0%
1$
1#
1"
#18300
b110010001101111011001000 !
0@
0?
1>
0=
1;
18
04
0-
0,
b1101010000011100 E
0(
0&
1%
0$
#18400
b100101000011101000010 !
1@
0>
0:
19
06
05
03
10
0.
1-
0+
0*
b101101111101100 E
1)
1(
0'
1&
0"
#18500
b11110111010100100110 !
1?
1<
0;
08
15
14
13
02
11
1/
1.
0-
b100110101010000 E
0(
1'
0%
#18600
b11000000101101000111001 !
1A
0@
0?
1>
1=
09
18
07
16
04
01
00
0/
0.
1,
1+
b101011110110001 E
1(
0&
1%
#18700
b1101010101101110011 !
1@
0>
1;
19
05
14
03
12
10
1/
0,
0+
b111001100000001 E
0'
1$
#18800
b1110010101011110101111 !
1?
1>
0=
0;
1:
17
06
15
04
13
02
11
00
0/
1.
1-
1,
b101011110111001 E
1'
0$
#18900
b10000010000000110110100 !
0A
0@
0>
1=
08
07
05
03
0.
0-
0,
1+
b10100001000110 E
0)
0(
0'
1&
0%
1$
0#
#19000
b10000100010000101100111 !
1A
1@
0=
1;
0:
14
01
10
b11001010011001 E
1(
0&
1%
#19100
b110010110000011001000 !
0A
0@
0?
1>
0<
1:
09
13
11
00
1.
1-
0+
b101011001010100 E
1'
0$
1#
#19200
b111011001100111111101011 !
1A
1@
1<
19
18
17
16
04
12
01
1/
0-
1,
1+
1*
b1101100111111001 E
1)
0(
0'
1&
1"
#19300
b1010100011010001010010 !
0A
0>
1=
0<
0:
09
08
06
15
14
03
02
10
0/
0+
0*
b11010000111010 E
0)
1'
0&
1$
0#
0"
#19400
b111010111101100110001010 !
1>
0=
0;
1:
19
07
16
04
13
12
11
1+
1*
b1101010010001100 E
0$
1#
1"
#19500
b101001111001010101001110 !
1?
1;
0:
17
06
03
1/
0.
0+
b1001000110111000 E
1)
0'
0#
#19600
b11011001101100000101100 !
0@
1<
0;
09
07
16
13
01
00
1.
1+
0*
b1010001110011100 E
1(
0%
1$
#19700
b11101000111110111011111 !
1A
1@
1=
0<
1;
1:
19
17
14
02
0.
1-
b1000010011110001 E
0)
0(
1'
0$
#19800
b110110110001101011000111 !
0>
0=
09
18
07
04
03
11
10
0/
1.
0,
1*
b110011011001011 E
1(
1$
1#
0"
#19900
b101000010100110010010001 !
0@
0?
1=
0;
08
17
05
13
00
0.
0-
1,
0+
b110110011000001 E
0(
1&
#20000
b101000011001011111110101 !
1?
1<
1;
19
18
06
15
03
12
b1010010000000111 E
0&
0#
1"
