RGB-Y Floating Point Modules/fp_rgb2grey_dsp/fp_rgb2grey_dsp.vcd
$date
	Sat Mar 02 22:39:46 2024
$end
$version
	ModelSim Version 10.5b
$end
$timescale
	1ps
$end

$scope module fp_rgb2grey_tb $end
$var reg 48 ! rgb_pixel [47:0] $end
$var wire 1 " grey_pixel [15] $end
$var wire 1 # grey_pixel [14] $end
$var wire 1 $ grey_pixel [13] $end
$var wire 1 % grey_pixel [12] $end
$var wire 1 & grey_pixel [11] $end
$var wire 1 ' grey_pixel [10] $end
$var wire 1 ( grey_pixel [9] $end
$var wire 1 ) grey_pixel [8] $end
$var wire 1 * grey_pixel [7] $end
$var wire 1 + grey_pixel [6] $end
$var wire 1 , grey_pixel [5] $end
$var wire 1 - grey_pixel [4] $end
$var wire 1 . grey_pixel [3] $end
$var wire 1 / grey_pixel [2] $end
$var wire 1 0 grey_pixel [1] $end
$var wire 1 1 grey_pixel [0] $end

$scope module uut $end
$var wire 1 2 rgb_pixel [47] $end
$var wire 1 3 rgb_pixel [46] $end
$var wire 1 4 rgb_pixel [45] $end
$var wire 1 5 rgb_pixel [44] $end
$var wire 1 6 rgb_pixel [43] $end
$var wire 1 7 rgb_pixel [42] $end
$var wire 1 8 rgb_pixel [41] $end
$var wire 1 9 rgb_pixel [40] $end
$var wire 1 : rgb_pixel [39] $end
$var wire 1 ; rgb_pixel [38] $end
$var wire 1 < rgb_pixel [37] $end
$var wire 1 = rgb_pixel [36] $end
$var wire 1 > rgb_pixel [35] $end
$var wire 1 ? rgb_pixel [34] $end
$var wire 1 @ rgb_pixel [33] $end
$var wire 1 A rgb_pixel [32] $end
$var wire 1 B rgb_pixel [31] $end
$var wire 1 C rgb_pixel [30] $end
$var wire 1 D rgb_pixel [29] $end
$var wire 1 E rgb_pixel [28] $end
$var wire 1 F rgb_pixel [27] $end
$var wire 1 G rgb_pixel [26] $end
$var wire 1 H rgb_pixel [25] $end
$var wire 1 I rgb_pixel [24] $end
$var wire 1 J rgb_pixel [23] $end
$var wire 1 K rgb_pixel [22] $end
$var wire 1 L rgb_pixel [21] $end
$var wire 1 M rgb_pixel [20] $end
$var wire 1 N rgb_pixel [19] $end
$var wire 1 O rgb_pixel [18] $end
$var wire 1 P rgb_pixel [17] $end
$var wire 1 Q rgb_pixel [16] $end
$var wire 1 R rgb_pixel [15] $end
$var wire 1 S rgb_pixel [14] $end
$var wire 1 T rgb_pixel [13] $end
$var wire 1 U rgb_pixel [12] $end
$var wire 1 V rgb_pixel [11] $end
$var wire 1 W rgb_pixel [10] $end
$var wire 1 X rgb_pixel [9] $end
$var wire 1 Y rgb_pixel [8] $end
$var wire 1 Z rgb_pixel [7] $end
$var wire 1 [ rgb_pixel [6] $end
$var wire 1 \ rgb_pixel [5] $end
$var wire 1 ] rgb_pixel [4] $end
$var wire 1 ^ rgb_pixel [3] $end
$var wire 1 _ rgb_pixel [2] $end
$var wire 1 ` rgb_pixel [1] $end
$var wire 1 a rgb_pixel [0] $end
$var wire 1 " grey_pixel [15] $end
$var wire 1 # grey_pixel [14] $end
$var wire 1 $ grey_pixel [13] $end
$var wire 1 % grey_pixel [12] $end
$var wire 1 & grey_pixel [11] $end
$var wire 1 ' grey_pixel [10] $end
$var wire 1 ( grey_pixel [9] $end
$var wire 1 ) grey_pixel [8] $end
$var wire 1 * grey_pixel [7] $end
$var wire 1 + grey_pixel [6] $end
$var wire 1 , grey_pixel [5] $end
$var wire 1 - grey_pixel [4] $end
$var wire 1 . grey_pixel [3] $end
$var wire 1 / grey_pixel [2] $end
$var wire 1 0 grey_pixel [1] $end
$var wire 1 1 grey_pixel [0] $end
$var reg 11 b redc_significand [10:0] $end
$var reg 11 c greenc_significand [10:0] $end
$var reg 11 d bluec_significand [10:0] $end
$var reg 5 e redc_exp [4:0] $end
$var reg 5 f greenc_exp [4:0] $end
$var reg 5 g bluec_exp [4:0] $end
$var reg 22 h redw_multiplied [21:0] $end
$var reg 22 i greenw_multiplied [21:0] $end
$var reg 22 j bluew_multiplied [21:0] $end
$var reg 5 k redw_exp [4:0] $end
$var reg 5 l greenw_exp [4:0] $end
$var reg 5 m bluew_exp [4:0] $end
$var reg 11 n redw_sig [10:0] $end
$var reg 11 o greenw_sig [10:0] $end
$var reg 11 p bluew_sig [10:0] $end
$var reg 5 q augend_exp0 [4:0] $end
$var reg 5 r shift0 [4:0] $end
$var reg 5 s augend_exp1 [4:0] $end
$var reg 5 t shift1 [4:0] $end
$var reg 11 u augend_sig0 [10:0] $end
$var reg 11 v addend_sig0 [10:0] $end
$var reg 11 w sum_sig0 [10:0] $end
$var reg 11 x augend_sig1 [10:0] $end
$var reg 11 y addend_sig1 [10:0] $end
$var reg 11 z sum_sig1 [10:0] $end
$var reg 1 { carry0 $end
$var reg 1 | carry1 $end
$upscope $end
$upscope $end
$enddefinitions $end
#0
$dumpvars
b1111000010011001010111101101100101011001000110 !
b10011001001 b
b10010110010 c
b11101001100 d
b1101 e
b1110 f
b1011 g
b100111101100111010110 h
b1001000011010010001100 i
b1011011100011011001000 j
b1101 k
b10101 l
b10010 m
b10011110110 n
b10010000110 o
b10110111000 p
b10101 q
b1000 r
b10101 s
b11 t
b10010000110 u
b100 v
b10010001010 w
b10010001010 x
b10110111 y
b10101000001 z
0{
0|
11
00
0/
0.
0-
0,
1+
0*
1)
0(
1'
0&
1%
0$
1#
0"
0a
1`
1_
0^
0]
0\
1[
0Z
0Y
1X
1W
0V
1U
0T
1S
0R
0Q
1P
1O
0N
1M
1L
0K
1J
1I
1H
1G
0F
1E
0D
1C
0B
0A
1@
1?
0>
0=
1<
0;
0:
09
08
17
16
15
14
03
02
$end
#100
b10001000010011001010111101101100101011001000110 !
b10001110010111001010111101101100101011001000110 !
b10001110010111001011011101101100101011001000110 !
b10001110010111001011001001110100101011001000110 !
b10001110010111001011001001110100100011001000110 !
b10001110010111001011001001110100100010110110100 !
0`
1]
1\
0[
1Z
1Y
0X
0U
0O
1N
0J
0H
0G
1F
1>
19
18
06
05
04
13
b1000100101101100011110 h
b110001000101001010100 i
b1010011001110101110000 j
b1111 k
b1101 m
b10001001011 n
b10000 k
b11000100010 o
b10100110011 p
b1110 m
b11000100010 u
b10001001011 v
b101 r
b100010 v
b11001000100 w
b11001000100 x
b10100110011 y
b111 t
b1010 y
b11001001110 z
01
10
1/
1.
0)
1(
#200
b10110110010111001011001001110100100010110110100 !
b10110100101011001011001001110100100010110110100 !
b10110100101011001010001001110100100010110110100 !
b10110100101011001010011110101000100010110110100 !
b10110100101011001010011110101000101010110110100 !
b10110100101011001010011110101000101010101111101 !
1a
1^
1[
0Z
1U
0P
1O
0N
0L
1K
1J
1H
0F
0>
1=
0<
1;
09
07
16
15
b111100101000110000110 h
b1001001100000101101000 i
b1010000000110000011100 j
b10100 k
b10011 l
b10001 m
b11110010100 n
b10010011000 o
b10100 l
b10100000001 p
b10010 m
b11110010100 u
b10010011000 v
b10100 q
b0 r
b10000101100 w
1{
b1000010110 w
b10101 q
b1000010110 x
b10100000001 y
b11 t
b10100000 y
b1010110110 z
0.
1-
1,
0+
1*
#300
b10010100101011001010011110101000101010101111101 !
b10010100000010101010011110101000101010101111101 !
b10010100000010101001011110101000101010101111101 !
b10010100000010101001011001000000101010101111101 !
b10010100000010101001011001000000101000101111101 !
b10010100000010101001011001000000101001100000101 !
0^
0]
0\
0[
1X
0W
0O
0M
1L
0K
0J
1F
0E
1A
0@
0=
0;
05
b111001100110111101101 h
b1000010111010001000000 i
b1100110011100001111100 j
b10000 k
b10001 l
b10000 m
b11100110011 n
b10000101110 o
b10010 l
b11001100111 p
b10001 m
b10000101110 u
b11100110011 v
b10010 q
b10 r
b111001100 v
b10111111010 w
0{
b10111111010 x
b11001100111 y
b10010 s
b1 t
b1100110011 y
b100101101 z
1|
b10010110 z
b10011 s
0,
0(
1&
0%
#400
b10100100000010101001011001000000101001100000101 !
b10100101110100101001011001000000101001100000101 !
b10100101110100101010011001000000101001100000101 !
b10100101110100101010001100010100101001100000101 !
b10100101110100101010001100010100011111100000101 !
b10100101110100101010001100010100011110110001011 !
1`
0_
1^
1Z
0X
1W
1V
1T
0S
1P
1N
0L
1J
0H
0F
1E
0?
1>
1<
1;
1:
06
15
b1000010001000011110001 h
b110100000000111110100 i
b1010000111001001000100 j
b10010 k
b10011 l
b1011 m
b10000100010 n
b10011 k
b11010000000 o
b10100001110 p
b1100 m
b10000100010 u
b11010000000 v
b10011 q
b0 r
b1010100010 w
1{
b101010001 w
b10100 q
b101010001 x
b10100001110 y
b10100 s
b1000 t
b101 y
b101010110 z
0|
1+
0*
1)
0'
0&
1%
#500
b10101101110100101010001100010100011110110001011 !
b10101111100100101010001100010100011110110001011 !
b10101111100100101000001100010100011110110001011 !
b10101111100100101000001010000000011110110001011 !
b10101111100100101000001010000000011111000001110 !
0a
1_
0Z
0Y
1X
0P
0N
1K
0J
0E
0<
19
17
b1001010100000011010001 h
b110001010011010000000 i
b1011000010111000101000 j
b1111 l
b1011 m
b10010101000 n
b10100 k
b11000101001 o
b10110000101 p
b1100 m
b10010101000 u
b11000101001 v
b101 r
b110001 v
b10011011001 w
0{
b10011011001 x
b10110000101 y
b101 y
b10011011110 z
1.
1*
0)
#600
b10011111100100101000001010000000011111000001110 !
b10011011000111001000001010000000011111000001110 !
b10011011000111000111101010000000011111000001110 !
b10011011000111000111101100101110011111000001110 !
b10011011000111000111101100101110101001000001110 !
b10011011000111000111101100101110101001111000111 !
1a
0^
1[
1Z
1Y
0W
0V
0T
1S
1Q
1P
1O
1M
0K
1J
1G
1F
1E
1D
0C
0A
1@
1?
0;
08
16
05
b110101001010001111110 h
b110100011111011111110 i
b1110001100000000010100 j
b10001 k
b1110 l
b10000 m
b11010100101 n
b11010001111 o
b11100011000 p
b10001 m
b11010100101 u
b11010001111 v
b10001 q
b11 r
b11010001 v
b11101110110 w
b11100011000 x
b11101110110 y
b10001 s
b0 t
b11010001110 z
1|
b1101000111 z
b10010 s
11
0.
0-
0*
1)
1(
1&
0%
#700
b1111011000111000111101100101110101001111000111 !
b1111010101000100111101100101110101001111000111 !
b1111010101000101000101100101110101001111000111 !
b1111010101000101000110001000110101001111000111 !
b1111010101000101000110001000110100111111000111 !
b1111010101000101000110001000110100110110110011 !
0_
1]
1\
0[
0X
1W
1V
0U
0O
0M
1L
0J
0I
1H
0F
0E
0D
1C
1A
0@
0?
0>
1=
1;
0:
15
14
03
b110010111000010011001 h
b111001101000001010110 i
b1010011001011000100100 j
b1101 k
b10000 l
b1111 m
b11001011100 n
b11100110100 o
b10100110010 p
b10000 m
b11100110100 u
b11001011100 v
b10000 q
b11001011 v
b11111111111 w
b10100110010 x
b11111111111 y
b10000 s
b10100110001 z
b1010011000 z
b10001 s
01
00
0/
1.
1-
0+
1*
0)
1'
0&
#800
b10001010101000101000110001000110100110110110011 !
b10001101110011001000110001000110100110110110011 !
b10001101110011001010110001000110100110110110011 !
b10001101110011001010110011001010100110110110011 !
b10001101110011001010110011001010100010110110011 !
b10001101110011001010110011001010100011100001111 !
1_
1^
0]
0\
0Z
1X
0V
0P
1O
1K
1E
0A
1@
1?
0=
1<
1:
09
18
06
05
04
13
b1000010000001010010110 h
b111100000011000111010 i
b1100111000000101110100 j
b1111 k
b10100 l
b1101 m
b10000100000 n
b10000 k
b11110000001 o
b11001110000 p
b1110 m
b11110000001 u
b10000100000 v
b10100 q
b100 r
b1000010 v
b11111000011 w
b11111000011 x
b11001110000 y
b10100 s
b110 t
b11001 y
b11111011100 z
0|
1/
1+
1)
0'
1%
#900
b10110101110011001010110011001010100011100001111 !
b10110000100010001010110011001010100011100001111 !
b10110000100010001000010011001010100011100001111 !
b10110000100010001000000110010110100011100001111 !
b10110000100010001000000110010110101101100001111 !
b10110000100010001000000110010110101101011000111 !
0^
1[
1Z
0Y
0W
1V
1U
1P
0O
1N
0L
1J
0H
0G
0E
0@
0<
0:
08
07
16
15
b101000110100101100100 h
b101101000000100100110 i
b1100010111010000010100 j
b10100 k
b1111 l
b10010 m
b10100011010 n
b10110100000 o
b11000101110 p
b10011 m
b10100011010 u
b10110100000 v
b101 r
b101101 v
b10101000111 w
b10101000111 x
b11000101110 y
b1 t
b1100010111 y
b1011110 z
1|
b101111 z
b10101 s
11
10
0-
1,
0+
0*
0)
0(
1'
#1000
b10001000100010001000000110010110101101011000111 !
b10001111110000101000000110010110101101011000111 !
b10001111110000101010000110010110101101011000111 !
b10001111110000101010011001100000101101011000111 !
b10001111110000101010011001100000101011011000111 !
b10001111110000101010011001100000101010100011101 !
0`
1^
1]
0[
0Z
1Y
0X
1W
0V
0Q
0P
0N
1M
1L
0K
0J
1I
1H
1E
1A
0?
1<
1:
19
18
17
06
05
b1001011011001110101001 h
b1000011011111101100000 i
b1001010100111110011100 j
b1111 k
b10011 l
b10001 m
b10010110110 n
b10000 k
b10000110111 o
b10100 l
b10010101001 p
b10010 m
b10000110111 u
b10010110110 v
b100 r
b1001011 v
b10010000010 w
b10010000010 x
b10010101001 y
b10100 s
b10 t
b100101010 y
b10110101100 z
0|
01
00
1*
1)
0'
#1100
b10001110001011001010011001100000101010100011101 !
b10001110001011001001011001100000101010100011101 !
b10001110001011001001011010000000101010100011101 !
b10001110001011001001011010000000101000100011101 !
b10001110001011001001011010000000101001010010001 !
0_
0^
1Z
0Y
1X
0W
0M
0L
1K
1F
0E
0A
1@
1?
1=
0<
0;
0:
b1000011110100001000110 h
b1000100000101010000000 i
b1011111110101000001100 j
b1111 k
b10001 l
b10000 m
b10000111101 n
b10000 k
b10001000001 o
b10010 l
b10111111101 p
b10001 m
b10001000001 u
b10000111101 v
b10010 q
b10 r
b100001111 v
b10101010000 w
b10101010000 x
b10111111101 y
b10010 s
b1 t
b1011111110 y
b1001110 z
1|
b100111 z
b10011 s
11
10
0.
0*
0)
1'
1&
0%
#1200
b10010110001011001001011010000000101001010010001 !
b10010001010000001001011010000000101001010010001 !
b10010001010000001011011010000000101001010010001 !
b10010001010000001011000000111010101001010010001 !
b10010001010000001011000000111010100111010010001 !
b10010001010000001011000000111010100111111011101 !
1_
1^
1[
1Y
1W
1V
0U
1Q
1O
1N
1M
0K
0I
0H
1E
0@
0?
0=
1<
1:
09
08
07
16
b101100010000110100000 h
b100110101000000101010 i
b1110010110000010011100 j
b10101 l
b1111 m
b10110001000 n
b10011010100 o
b11100101100 p
b10000 m
b10011010100 u
b10110001000 v
b10101 q
b101 r
b101100 v
b10100000000 w
b10100000000 x
b11100101100 y
b10101 s
b101 t
b111001 y
b10100111001 z
0|
00
0/
1.
1-
1)
0&
1%
#1300
b10001001010000001011000000111010100111111011101 !
b10001001000010001011000000111010100111111011101 !
b10001001000010001011000100010010100111111011101 !
b10001001000010001011000100010010100011111011101 !
b10001001000010001011000100010010100011011010101 !
0^
0Y
0V
0O
0M
1J
1?
0<
17
06
b101011001101110100100 h
b101010100101101000010 i
b1100011101101000111100 j
b1111 k
b1101 m
b10101100110 n
b10101010010 o
b11000111011 p
b1110 m
b10101010010 u
b10101100110 v
b110 r
b10101 v
b10101100111 w
b10101100111 x
b11000111011 y
b111 t
b1100 y
b10101110011 z
10
0.
1+
#1400
b10101001000010001011000100010010100011011010101 !
b10101100100110001011000100010010100011011010101 !
b10101100100110001010100100010010100011011010101 !
b10101100100110001010110110000110100011011010101 !
b10101100100110001010110110000110011111011010101 !
b10101100100110001010110110000110011110110111100 !
0a
1^
1\
0[
1Y
0X
1V
1U
1T
0S
1P
0N
1K
1H
1G
0F
1>
1;
0:
18
15
b111100010000110101100 h
b111111011111110010110 i
b1010011101011111010000 j
b10011 k
b10100 l
b1011 m
b11110001000 n
b11111101111 o
b10100111010 p
b1100 m
b11111101111 u
b11110001000 v
b10100 q
b1 r
b1111000100 v
b1110110011 w
1{
b111011001 w
b10101 q
b111011001 x
b10100111010 y
b1001 t
b10 y
b111011011 z
1.
0,
1*
#1500
b10010100100110001010110110000110011110110111100 !
b10010101111001101010110110000110011110110111100 !
b10010101111001101011010110000110011110110111100 !
b10010101111001101011001101101110011110110111100 !
b10010101111001101011001101101110100100110111100 !
b10010101111001101011001101101110100101011100111 !
1a
1`
0^
0]
1[
0Y
1X
0W
0U
0T
1S
1O
1M
1L
0K
1I
0H
0G
1F
1A
1@
0?
0>
1=
1<
1:
07
16
05
b1000010100000011001011 h
b110101101010100111110 i
b1100100101110110010100 j
b10000 k
b10101 l
b1110 m
b10000101000 n
b10001 k
b11010110101 o
b11001001011 p
b1111 m
b11010110101 u
b10000101000 v
b100 r
b1000010 v
b11011110111 w
0{
b11011110111 x
b11001001011 y
b110 t
b11001 y
b11100010000 z
01
00
0.
0+
0*
1(
#1600
b1111101111001101011001101101110100101011100111 !
b1111010000100101011001101101110100101011100111 !
b1111010000100101000101101101110100101011100111 !
b1111010000100101000110110000010100101011100111 !
b1111010000100101000110110000010100111011100111 !
b1111010000100101000110110000010100111101100000 !
0a
0`
0_
0Z
1Y
1W
0P
0O
0M
0L
1K
0I
1H
1G
0F
0E
0@
1>
0=
0<
0;
0:
19
08
17
15
14
03
b110000001100000010001 h
b111111011011000110010 i
b1101011101000010000000 j
b1101 k
b10000 l
b11000000110 n
b11111101101 o
b11010111010 p
b10000 m
b11111101101 u
b11000000110 v
b10000 q
b11 r
b11000000 v
b10101101 w
1{
b1010110 w
b10001 q
b1010110 x
b11010111010 y
b10001 s
b1 t
b1101011101 y
b1110110011 z
11
10
1,
1*
0%
#1700
b10110010000100101000110110000010100111101100000 !
b10110010110111101000110110000010100111101100000 !
b10110010110111101010010110000010100111101100000 !
b10110010110111101010011110011010100111101100000 !
b10110010110111101010011110011010100111011010000 !
1]
0\
1Z
0Y
1O
1N
1I
0G
1E
1@
1?
1<
1;
07
04
13
b110100000000000100111 h
b1001001010000010001010 i
b1100011011010111000000 j
b10100 k
b10011 l
b1111 m
b11010000000 n
b10010010100 o
b10100 l
b11000110110 p
b10000 m
b11010000000 u
b10010010100 v
b10100 q
b0 r
b1100010100 w
b110001010 w
b10101 q
b110001010 x
b11000110110 y
b10101 s
b101 t
b110001 y
b110111011 z
1.
0(
1%
#1800
b10000010110111101010011110011010100111011010000 !
b10000011111110001010011110011010100111011010000 !
b10000011111110001010000101001110100111011010000 !
b10000011111110001010000101001110100101011010000 !
b10000011111110001010000101001110100100010111110 !
1`
1_
1^
1\
0[
0X
0W
1P
0N
1L
0K
0I
0H
0A
0@
1=
1:
06
05
b111001010001011011100 h
b101011101100000011110 i
b1000101001101001101000 j
b1110 k
b10011 l
b1110 m
b11100101000 n
b10101110110 o
b10001010011 p
b1111 m
b10101110110 u
b11100101000 v
b10011 q
b101 r
b111001 v
b10110101111 w
0{
b10110101111 x
b10001010011 y
b10011 s
b100 t
b1000101 y
b10111110100 z
01
00
1/
0.
1+
1&
0%
#1900
b10000011000010101010000101001110100100010111110 !
b10000011000010101010100101001110100100010111110 !
b10000011000010101010111101000000100100010111110 !
b10000011000010101010111101000000101000010111110 !
b10000011000010101010111101000000101000000000000 !
0`
0_
0^
0]
0\
0Z
0V
1U
0Q
0P
0O
1I
1H
1G
1A
0>
0=
0<
0;
b110100110100101101101 h
b1000111100110101000000 i
b111010011000000000000 j
b10100 l
b10000 m
b11010011010 n
b10001111001 o
b10101 l
b11101001100 p
b10001111001 u
b11010011010 v
b10101 q
b111 r
b1101 v
b10010000110 w
b10010000110 x
b11101001100 y
b10101 s
b101 t
b111010 y
b10011000000 z
0/
0-
0,
0)
0&
1%
#2000
b10011011000010101010111101000000101000000000000 !
b10011111000101101010111101000000101000000000000 !
b10011111000101100111111101000000101000000000000 !
b10011111000101100111110101111010101000000000000 !
b10011111000101100111110101111010100110000000000 !
b10011111000101100111110101111010100111101111101 !
1a
1_
1^
1]
1\
1[
1Y
1X
1W
1V
0U
1Q
1O
1N
1M
0I
1F
1D
0C
1@
0?
1>
18
17
16
b1001000001100000100011 h
b111111010001101101010 i
b1101101010010000011100 j
b10001 k
b1110 l
b1111 m
b10010000011 n
b10010 k
b11111101000 o
b11011010100 p
b10000 m
b10010000011 u
b11111101000 v
b10010 q
b100 r
b1111110 v
b10100000001 w
b10100000001 x
b11011010100 y
b10010 s
b10 t
b110110101 y
b11010110110 z
10
1/
1-
1,
0+
1(
0'
1&
0%
#2100
b10010111000101100111110101111010100111101111101 !
b10010011010101000111110101111010100111101111101 !
b10010011010101001000010101111010100111101111101 !
b10010011010101001000010101100100100111101111101 !
b10010011010101001000010101100100101011101111101 !
b10010011010101001000010101100100101011001000110 !
0a
1`
0^
0]
0\
0Y
0V
1U
0Q
1P
0O
0N
0G
0F
0E
0D
1C
0A
1<
08
07
b110110001101001111010 h
b111110110111111000100 i
b1011011100011011001000 j
b10000 k
b1111 l
b10001 m
b11011000110 n
b11111011011 o
b10110111000 p
b10010 m
b11011000110 u
b11111011011 v
b10000 q
b1 r
b1111101101 v
b1010110011 w
1{
b101011001 w
b10001 q
b10110111000 x
b101011001 y
b1 t
b10101100 y
b11001100100 z
00
0-
1+
0*
#2200
b10011011010101001000010101100100101011001000110 !
b10011101110000101000010101100100101011001000110 !
b10011101110000101001110101100100101011001000110 !
b10011101110000101001100001000010101011001000110 !
b10011101110000101001100001000010011111001000110 !
b10011101110000101001100001000010011111101101001 !
1a
0`
0_
1^
1\
1Y
1V
1T
0S
1Q
0P
0M
0J
0H
1G
1F
1A
0@
0>
1;
09
18
17
b1000001110101010101001 h
b100110110001011110010 i
b1101100001001000101100 j
b10001 k
b10010 l
b1011 m
b10000011101 n
b10010 k
b10011011000 o
b11011000010 p
b1100 m
b10000011101 u
b10011011000 v
b10010 q
b0 r
b11110101 w
b1111010 w
b10011 q
b1111010 x
b11011000010 y
b10011 s
b111 t
b1101 y
b10000111 z
11
10
0,
0+
1*
0(
1'
#2300
b10101101110000101001100001000010011111101101001 !
b10101111111010001001100001000010011111101101001 !
b10101111111010001010100001000010011111101101001 !
b10101111111010001010100110010100011111101101001 !
b10101111111010001010100110010100011110000000011 !
1`
0^
0\
0[
0Y
0X
0Q
1P
1N
0L
1K
1J
0F
1E
0A
1?
1=
19
06
15
b1001100000111010010100 h
b101100111110001110100 i
b111010100010111100100 j
b10011 k
b10100 l
b1011 m
b10011000001 n
b10100 k
b10110011111 o
b11101010001 p
b10011000001 u
b10110011111 v
b10100 q
b1001100000 w
b100110000 w
b10101 q
b100110000 x
b11101010001 y
b10101 s
b1010 t
b1 y
b100110001 z
00
0/
1-
1,
0*
1)
0&
1%
#2400
b10110111111010001010100110010100011110000000011 !
b10110111110110001010100110010100011110000000011 !
b10110111110110001010100010001100011110000000011 !
b10110111110110001010100010001100011111011000101 !
0`
1_
1[
1Z
1X
1O
0N
0J
1>
0=
07
16
b1001011110100001001100 h
b101000001000010101100 i
b1100010110010101111100 j
b10010111101 n
b10101 k
b10100000100 o
b11000101100 p
b1100 m
b10010111101 u
b10100000100 v
b1 r
b1010000010 v
b11100111111 w
0{
b11100111111 x
b11000101100 y
b1001 t
b11 y
b11101000010 z
01
10
0-
0,
1+
1(
#2500
b10101111110110001010100010001100011111011000101 !
b10101101010010001010100010001100011111011000101 !
b10101101010010001010000010001100011111011000101 !
b10101101010010001010000000011010011111011000101 !
b10101101010010001010000000011010101011011000101 !
b10101101010010001010000000011010101010001111101 !
1^
1]
1\
0Z
0X
0V
0T
1S
1Q
0P
1N
0K
0G
0>
0;
09
17
06
b111111100011011000100 h
b100110000010100001010 i
b1000001100000000011100 j
b10011 k
b10011 l
b10001 m
b11111110001 n
b10011000001 o
b10000011000 p
b10010 m
b11111110001 u
b10011000001 v
b10011 q
b0 r
b10010110010 w
1{
b1001011001 w
b10100 q
b1001011001 x
b10000011000 y
b10100 s
b10 t
b100000110 y
b1101011111 z
11
1/
1.
1-
0'
#2600
b10110101010010001010000000011010101010001111101 !
b10110011111100101010000000011010101010001111101 !
b10110011111100101000000000011010101010001111101 !
b10110011111100101000010001000010101010001111101 !
b10110011111100101000010001000010101000001111101 !
b10110011111100101000010001000010101001011011101 !
0\
1Z
1X
0W
0O
0N
1L
1H
0E
1A
0?
1>
1=
1;
19
08
07
16
b111001001010010000001 h
b111001100011011110010 i
b1100100001010010011100 j
b10100 k
b1111 l
b10000 m
b11100100101 n
b11100110001 o
b11001000010 p
b10001 m
b11100100101 u
b11100110001 v
b101 r
b111001 v
b11101011110 w
0{
b11101011110 x
b11001000010 y
b11 t
b11001000 y
b100110 z
1|
b10011 z
b10101 s
0/
0.
0+
0)
0(
1'
#2700
b10110111111000101000010001000010101001011011101 !
b10110111111000101010010001000010101001011011101 !
b10110111111000101010001100110100101001011011101 !
b10110111111000101010001100110100011111011011101 !
b10110111111000101010001100110100011111110101000 !
0a
0_
0]
1\
0[
1Y
1W
1V
1T
0S
0Q
1P
1N
1M
0L
1J
1I
0H
1E
0>
18
b1001100000000000111001 h
b110100100110100010100 i
b1101111101110111100000 j
b10011 l
b1011 m
b10011000000 n
b10101 k
b11010010011 o
b11011111011 p
b1100 m
b10011000000 u
b11010010011 v
b10101 q
b10 r
b110100100 v
b11001100100 w
b11001100100 x
b11011111011 y
b1001 t
b11 y
b11001100111 z
0|
1/
0-
1,
1+
1(
#2800
b10101111111000101010001100110100011111110101000 !
b10101111110111001010001100110100011111110101000 !
b10101111110111001001101100110100011111110101000 !
b10101111110111001001101000110000011111110101000 !
b10101111110111001001101000110000100001110101000 !
b10101111110111001001101000110000100001001111100 !
1_
1]
1[
0Z
0Y
0W
0V
0U
0T
1S
0P
0J
1G
1F
0E
0A
1@
1?
1>
0=
17
06
b1001011111000111011110 h
b101111110101010110000 i
b1011110101000011010000 j
b10011 k
b10010 l
b10010111110 n
b10100 k
b10111111010 o
b10111101010 p
b1101 m
b10010111110 u
b10111111010 v
b10100 q
b101111110 v
b11000111100 w
b11000111100 x
b10111101010 y
b10100 s
b111 t
b1011 y
b11001000111 z
0,
0'
#2900
b10100111110111001001101000110000100001001111100 !
b10100001100000101001101000110000100001001111100 !
b10100001100000101011001000110000100001001111100 !
b10100001100000101011010010001100100001001111100 !
b10100001100000101011010010001100011111001111100 !
b10100001100000101011010010001100011110100100111 !
1a
1`
0^
0]
0[
1Y
0X
1W
1V
1U
1T
0S
1P
1O
0N
0M
1K
0I
1H
0G
1E
1A
0@
0?
0>
0<
09
08
07
b101101011111110001001 h
b111010111010010101100 i
b1001011001100010010100 j
b10010 k
b10101 l
b1011 m
b10110101111 n
b11101011101 o
b10010110011 p
b1100 m
b11101011101 u
b10110101111 v
b10101 q
b11 r
b10110101 v
b10010 w
1{
b1001 w
b10110 q
b1001 x
b10010110011 y
b10110 s
b1010 t
b1 y
b1010 z
01
0/
1.
0+
0(
1&
#3000
b10010001100000101011010010001100011110100100111 !
b10010110011110001011010010001100011110100100111 !
b10010110011110001010110010001100011110100100111 !
b10010110011110001010110110010000011110100100111 !
b10010110011110001010110110010000100010100100111 !
b10010110011110001010110110010000100010100100110 !
0a
0V
0U
0T
1S
0P
0O
1N
1J
1G
0F
0A
1?
1>
1=
1<
0;
0:
19
18
16
05
b1000101001111000011100 h
b111111101011100010000 i
b1001011001000101001000 j
b10000 k
b10100 l
b1101 m
b10001010011 n
b10001 k
b11111110101 o
b10010110010 p
b1110 m
b11111110101 u
b10001010011 v
b10100 q
b10001010 v
b1111111 w
b111111 w
b10101 q
b111111 x
b10010110010 y
b10101 s
b111 t
b1001 y
b1001000 z
00
1+
1'
0&
#3100
b10000110011110001010110110010000100010100100110 !
b10000110111001101010110110010000100010100100110 !
b10000110111001101011010110010000100010100100110 !
b10000110111001101011001101101000100010100100110 !
b10000110111001101011001101101000101100100100110 !
b10000110111001101011001101101000101100011001000 !
0`
0_
1^
0\
1[
1Z
0Y
0W
1V
1U
1O
0N
1M
1L
0K
1I
0H
0G
1F
1A
1@
0?
0>
1;
06
b1000111010010101001011 h
b110101100011100101000 i
b1000101110001101100000 j
b1110 k
b10101 l
b10010 m
b10001110100 n
b1111 k
b11010110001 o
b10001011100 p
b10011 m
b11010110001 u
b10001110100 v
b110 r
b10001 v
b11011000010 w
0{
b11011000010 x
b10001011100 y
b10 t
b100010111 y
b11111011001 z
11
1-
1*
1)
1(
#3200
b10010110111001101011001101101000101100011001000 !
b10010000101001001011001101101000101100011001000 !
b10010000101001001000101101101000101100011001000 !
b10010000101001001000101010011100101100011001000 !
b10010000101001001000101010011100100110011001000 !
b10010000101001001000101010011100100110111011111 !
1a
1`
1_
1]
1Y
1W
0U
1P
1N
0M
0L
1K
0J
1G
0F
0E
0A
0<
09
08
16
b101001010110001100010 h
b110001110100000111100 i
b1010101101011100110100 j
b10000 k
b10000 l
b1111 m
b10100101011 n
b11000111010 o
b10101011010 p
b10000 m
b10100101011 u
b11000111010 v
b10000 q
b0 r
b1101100101 w
1{
b110110010 w
b10001 q
b110110010 x
b10101011010 y
b10001 s
b1 t
b1010101101 y
b10001011111 z
10
1/
0*
0)
0(
0%
#3300
b10110000101001001000101010011100100110111011111 !
b10110001001000101000101010011100100110111011111 !
b10110001001000101010001010011100100110111011111 !
b10110001001000101010000111010100100110111011111 !
b10110001001000101010000111010100101100111011111 !
b10110001001000101010000111010100101100110010101 !
0`
0^
0[
0W
1U
0O
1L
1J
0I
0G
1E
1A
0@
0;
1:
15
b101011101100111011001 h
b101110001001010110100 i
b1010001011101100111100 j
b10100 k
b10011 l
b10010 m
b10101110110 n
b10111000100 o
b10100010111 p
b10011 m
b10101110110 u
b10111000100 v
b10100 q
b1 r
b1011100010 v
b1011000 w
b101100 w
b10101 q
b101100 x
b10100010111 y
b10101 s
b10 t
b101000101 y
b101110001 z
00
0/
0.
1,
1)
1%
